{
    "results": [
                {
                "vote_count": 683,
                "id": 320288,
                "video": false,
                "vote_average": 6.1,
                "title": "Dark Phoenix",
                "popularity": 274.602,
                "poster_path": "\/kZv92eTc0Gg3mKxqjjDAM73z9cy.jpg",
                "original_language": "en",
                "original_title": "Dark Phoenix",
                "genre_ids": [
                              878,
                              28
                              ],
                "backdrop_path": "\/phxiKFDvPeQj4AbkvJLmuZEieDU.jpg",
                "adult": false,
                "overview": "The X-Men face their most formidable and powerful foe when one of their own, Jean Grey, starts to spiral out of control. During a rescue mission in outer space, Jean is nearly killed when she's hit by a mysterious cosmic force. Once she returns home, this force not only makes her infinitely more powerful, but far more unstable. The X-Men must now band together to save her soul and battle aliens that want to use Grey's new abilities to rule the galaxy.",
                "release_date": "2019-06-05"
                },
                {
                "vote_count": 1110,
                "id": 458156,
                "video": false,
                "vote_average": 7.2,
                "title": "John Wick: Chapter 3 – Parabellum",
                "popularity": 129.545,
                "poster_path": "\/ziEuG1essDuWuC5lpWUaw1uXY2O.jpg",
                "original_language": "en",
                "original_title": "John Wick: Chapter 3 – Parabellum",
                "genre_ids": [
                              80,
                              28,
                              53
                              ],
                "backdrop_path": "\/vVpEOvdxVBP2aV166j5Xlvb5Cdc.jpg",
                "adult": false,
                "overview": "Super-assassin John Wick returns with a $14 million price tag on his head and an army of bounty-hunting killers on his trail. After killing a member of the shadowy international assassin’s guild, the High Table, John Wick is excommunicado, but the world’s most ruthless hit men and women await his every turn.",
                "release_date": "2019-05-15"
                },
                {
                "vote_count": 20,
                "id": 301528,
                "video": false,
                "vote_average": 4.4,
                "title": "Toy Story 4",
                "popularity": 112.606,
                "poster_path": "\/crvO4xm2gs5W0joyKmJf1l1ThZV.jpg",
                "original_language": "en",
                "original_title": "Toy Story 4",
                "genre_ids": [
                              12,
                              16,
                              35,
                              10751
                              ],
                "backdrop_path": "\/p3lkc1fDBeX9ZiIQVwRtOnXYENL.jpg",
                "adult": false,
                "overview": "Woody has always been confident about his place in the world and that his priority is taking care of his kid, whether that's Andy or Bonnie. But when Bonnie adds a reluctant new toy called \"Forky\" to her room, a road trip adventure alongside old and new friends will show Woody how big the world can be for a toy.",
                "release_date": "2019-06-19"
                },
                {
                "vote_count": 576,
                "id": 373571,
                "video": false,
                "vote_average": 6.4,
                "title": "Godzilla: King of the Monsters",
                "popularity": 107.473,
                "poster_path": "\/pU3bnutJU91u3b4IeRPQTOP8jhV.jpg",
                "original_language": "en",
                "original_title": "Godzilla: King of the Monsters",
                "genre_ids": [
                              878,
                              28,
                              53
                              ],
                "backdrop_path": "\/uovH5k4BAEPqXqxgwVrTtqH169g.jpg",
                "adult": false,
                "overview": "The new story follows the heroic efforts of the crypto-zoological agency Monarch as its members face off against a battery of god-sized monsters, including the mighty Godzilla, who collides with Mothra, Rodan, and his ultimate nemesis, the three-headed King Ghidorah. When these ancient super-species—thought to be mere myths—rise again, they all vie for supremacy, leaving humanity’s very existence hanging in the balance.",
                "release_date": "2019-05-29"
                },
                {
                "vote_count": 1338,
                "id": 447404,
                "video": false,
                "vote_average": 7,
                "title": "Pokémon Detective Pikachu",
                "popularity": 102.88,
                "poster_path": "\/wgQ7APnFpf1TuviKHXeEe3KnsTV.jpg",
                "original_language": "en",
                "original_title": "Pokémon Detective Pikachu",
                "genre_ids": [
                              9648,
                              10751,
                              35,
                              878,
                              28,
                              12
                              ],
                "backdrop_path": "\/nDP33LmQwNsnPv29GQazz59HjJI.jpg",
                "adult": false,
                "overview": "In a world where people collect pocket-size monsters (Pokémon) to do battle, a boy comes across an intelligent monster who seeks to be a detective.",
                "release_date": "2019-05-03"
                },
                {
                "vote_count": 348,
                "id": 505948,
                "video": false,
                "vote_average": 6.6,
                "title": "I Am Mother",
                "popularity": 89.029,
                "poster_path": "\/eItrj5GcjvCI3oD3bIcz1A2IL9t.jpg",
                "original_language": "en",
                "original_title": "I Am Mother",
                "genre_ids": [
                              53,
                              878
                              ],
                "backdrop_path": "\/kmPnDn9mbjD9Vzn1FTclNiSHGNa.jpg",
                "adult": false,
                "overview": "A teenage girl is raised underground by a robot \"Mother\", designed to repopulate the earth following an extinction event. But their unique bond is threatened when an inexplicable stranger arrives with alarming news.",
                "release_date": "2019-06-07"
                },
                {
                "vote_count": 131,
                "id": 412117,
                "video": false,
                "vote_average": 6.5,
                "title": "The Secret Life of Pets 2",
                "popularity": 85.611,
                "poster_path": "\/q3mKnSkzp1doIsCye6ap4KIUAbu.jpg",
                "original_language": "en",
                "original_title": "The Secret Life of Pets 2",
                "genre_ids": [
                              12,
                              16,
                              35,
                              10751
                              ],
                "backdrop_path": "\/etaok7q2E5tV36oXe7GQzhUQ4fX.jpg",
                "adult": false,
                "overview": "What happens with our pets when we’re not home? This movie continues the original movie with Max and his friends.",
                "release_date": "2019-05-24"
                },
                {
                "vote_count": 158,
                "id": 502416,
                "video": false,
                "vote_average": 5.7,
                "title": "Ma",
                "popularity": 73.132,
                "poster_path": "\/6n7ASmQ1wY2cxTubFFGlcvPpyk7.jpg",
                "original_language": "en",
                "original_title": "Ma",
                "genre_ids": [
                              53,
                              27
                              ],
                "backdrop_path": "\/mBOv5YrX5QGr5CusK0PKSHuxOt9.jpg",
                "adult": false,
                "overview": "Sue Ann is a loner who keeps to herself in her quiet Ohio town. One day, she is asked by Maggie, a new teenager in town, to buy some booze for her and her friends, and Sue Ann sees the chance to make some unsuspecting, if younger, friends of her own.",
                "release_date": "2019-05-29"
                },
                {
                "vote_count": 0,
                "id": 429617,
                "video": false,
                "vote_average": 0,
                "title": "Spider-Man: Far from Home",
                "popularity": 70.158,
                "poster_path": "\/dzg8lHS78l5Xxpd2EM5H541Qn2s.jpg",
                "original_language": "en",
                "original_title": "Spider-Man: Far from Home",
                "genre_ids": [
                              28,
                              12,
                              878
                              ],
                "backdrop_path": "\/dihW2yTsvQlust7mSuAqJDtqW7k.jpg",
                "adult": false,
                "overview": "Peter Parker and his friends go on a summer trip to Europe. However, they will hardly be able to rest - Peter will have to agree to help Nick Fury uncover the mystery of creatures that cause natural disasters and destruction throughout the continent.",
                "release_date": "2019-06-28"
                },
                {
                "vote_count": 732,
                "id": 527641,
                "video": false,
                "vote_average": 8.1,
                "title": "Five Feet Apart",
                "popularity": 60.31,
                "poster_path": "\/kreTuJBkUjVWePRfhHZuYfhNE1T.jpg",
                "original_language": "en",
                "original_title": "Five Feet Apart",
                "genre_ids": [
                              10749,
                              18
                              ],
                "backdrop_path": "\/d7wa3VpUpKDQ7GG9EMw8zSJCFoI.jpg",
                "adult": false,
                "overview": "Seventeen-year-old Stella spends most of her time in the hospital as a cystic fibrosis patient. Her life is full of routines, boundaries and self-control -- all of which get put to the test when she meets Will, an impossibly charming teen who has the same illness. There's an instant flirtation, though restrictions dictate that they must maintain a safe distance between them. As their connection intensifies, so does the temptation to throw the rules out the window and embrace that attraction.",
                "release_date": "2019-03-15"
                },
                {
                "vote_count": 491,
                "id": 504608,
                "video": false,
                "vote_average": 7.6,
                "title": "Rocketman",
                "popularity": 58.684,
                "poster_path": "\/f4FF18ia7yTvHf2izNrHqBmgH8U.jpg",
                "original_language": "en",
                "original_title": "Rocketman",
                "genre_ids": [
                              10402,
                              18
                              ],
                "backdrop_path": "\/oAr5bgf49vxga9etWoQpAeRMvhp.jpg",
                "adult": false,
                "overview": "The story of Elton John's life, from his years as a prodigy at the Royal Academy of Music through his influential and enduring musical partnership with Bernie Taupin.",
                "release_date": "2019-05-22"
                },
                {
                "vote_count": 175,
                "id": 535581,
                "video": false,
                "vote_average": 5.8,
                "title": "The Dead Don't Die",
                "popularity": 47.36,
                "poster_path": "\/ycMSfP8KRFsVUWfbSxSFpD97QfD.jpg",
                "original_language": "en",
                "original_title": "The Dead Don't Die",
                "genre_ids": [
                              35,
                              27
                              ],
                "backdrop_path": "\/cXyfAViYly0Lk2CVpEKgYbt9wKQ.jpg",
                "adult": false,
                "overview": "In a small peaceful town, zombies suddenly rise to terrorize the town. Now three bespectacled police officers and a strange Scottish morgue expert must band together to defeat the undead.",
                "release_date": "2019-05-15"
                },
                {
                "vote_count": 3,
                "id": 533642,
                "video": false,
                "vote_average": 3.8,
                "title": "Child's Play",
                "popularity": 45.501,
                "poster_path": "\/Y6VAJ21VjNtLmoTKYIXfbilfdI.jpg",
                "original_language": "en",
                "original_title": "Child's Play",
                "genre_ids": [
                              27
                              ],
                "backdrop_path": "\/1TMdk250An49gSLUZNUnXKqXzmE.jpg",
                "adult": false,
                "overview": "The story follows a mother named Karen, who gives her son Andy a toy doll for his birthday, unaware of its sinister nature.",
                "release_date": "2019-06-19"
                },
                {
                "vote_count": 126,
                "id": 416144,
                "video": false,
                "vote_average": 7.3,
                "title": "Hotel Mumbai",
                "popularity": 41.032,
                "poster_path": "\/4UM3WBgWvAXi9CaBXJjwAMnEY05.jpg",
                "original_language": "en",
                "original_title": "Hotel Mumbai",
                "genre_ids": [
                              53,
                              18
                              ],
                "backdrop_path": "\/tdVYVR4nIIcmpL0zl39cBfix7Un.jpg",
                "adult": false,
                "overview": "The true story of the 2008 Taj Mahal Palace Hotel terrorist attack in Mumbai when hotel staff risked their lives to keep everyone safe, and as people make unthinkable sacrifices to protect themselves and their families.",
                "release_date": "2019-03-14"
                },
                {
                "vote_count": 139,
                "id": 411728,
                "video": false,
                "vote_average": 7,
                "title": "The Professor and the Madman",
                "popularity": 37.908,
                "poster_path": "\/gtGCDLhfjW96qVarwctnuTpGOtD.jpg",
                "original_language": "en",
                "original_title": "The Professor and the Madman",
                "genre_ids": [
                              18,
                              36,
                              9648,
                              53
                              ],
                "backdrop_path": "\/zhNfM1CSQqJtIqelwlK9iKtSd9P.jpg",
                "adult": false,
                "overview": "Professor James Murray begins work compiling words for the first edition of the Oxford English Dictionary in the mid 19th century, and receives over 10,000 entries from a patient at Broadmoor Criminal Lunatic Asylum, Dr. William Minor.",
                "release_date": "2019-03-07"
                },
                {
                "vote_count": 14435,
                "id": 603,
                "video": false,
                "vote_average": 8.1,
                "title": "The Matrix",
                "popularity": 36.999,
                "poster_path": "\/hEpWvX6Bp79eLxY1kX5ZZJcme5U.jpg",
                "original_language": "en",
                "original_title": "The Matrix",
                "genre_ids": [
                              28,
                              878
                              ],
                "backdrop_path": "\/icmmSD4vTTDKOq2vvdulafOGw93.jpg",
                "adult": false,
                "overview": "Set in the 22nd century, The Matrix tells the story of a computer hacker who joins a group of underground insurgents fighting the vast and powerful computers who now rule the earth.",
                "release_date": "1999-03-30"
                },
                {
                "vote_count": 7439,
                "id": 129,
                "video": false,
                "vote_average": 8.5,
                "title": "Spirited Away",
                "popularity": 36.299,
                "poster_path": "\/oRvMaJOmapypFUcQqpgHMZA6qL9.jpg",
                "original_language": "ja",
                "original_title": "千と千尋の神隠し",
                "genre_ids": [
                              16,
                              10751,
                              14
                              ],
                "backdrop_path": "\/dUoGxrlUWDwjpzNggKt33uWlOvM.jpg",
                "adult": false,
                "overview": "A young girl, Chihiro, becomes trapped in a strange new world of spirits. When her parents undergo a mysterious transformation, she must call upon the courage she never knew she had to free her family.",
                "release_date": "2001-07-20"
                },
                {
                "vote_count": 204,
                "id": 531309,
                "video": false,
                "vote_average": 5.6,
                "title": "Brightburn",
                "popularity": 36.18,
                "poster_path": "\/sJWwkYc9ajwnPRSkqj8Aue5JbKz.jpg",
                "original_language": "en",
                "original_title": "Brightburn",
                "genre_ids": [
                              27,
                              878,
                              18,
                              53
                              ],
                "backdrop_path": "\/uHEI6v8ApQusjbaRZ8o7WcLYeWb.jpg",
                "adult": false,
                "overview": "What if a child from another world crash-landed on Earth, but instead of becoming a hero to mankind, he proved to be something far more sinister?",
                "release_date": "2019-05-09"
                },
                {
                "vote_count": 192,
                "id": 429471,
                "video": false,
                "vote_average": 5.1,
                "title": "Captive State",
                "popularity": 35.038,
                "poster_path": "\/wB24P3QGGoAkEyBzTEb5s4lFY7N.jpg",
                "original_language": "en",
                "original_title": "Captive State",
                "genre_ids": [
                              53,
                              878
                              ],
                "backdrop_path": "\/6IZ84KFhNpy6htsJmwFVuK30pyp.jpg",
                "adult": false,
                "overview": "Nearly a decade after occupation by an extraterrestrial force, the lives of a Chicago neighborhood on both sides of the conflict are explored.",
                "release_date": "2019-03-15"
                },
                {
                "vote_count": 16,
                "id": 500860,
                "video": false,
                "vote_average": 6.7,
                "title": "The Mustang",
                "popularity": 32.842,
                "poster_path": "\/sXQzQcjNAYYosymYPVaXh1nYKaJ.jpg",
                "original_language": "en",
                "original_title": "The Mustang",
                "genre_ids": [
                              18
                              ],
                "backdrop_path": "\/fyeWMg5xHptugAXsdfMXlUbYBpO.jpg",
                "adult": false,
                "overview": "While participating in a rehabilitation program training wild mustangs, a convict at first struggles to connect with the horses and his fellow inmates, but he learns to confront his violent past as he soothes an especially feisty horse.",
                "release_date": "2019-03-15"
                }
                ],
    "page": 1,
    "total_results": 345,
    "dates": {
        "maximum": "2019-07-12",
        "minimum": "2019-06-17"
    },
    "total_pages": 18
}
