{
    "page": 1,
    "total_results": 390,
    "total_pages": 20,
    "results": [
                {
                "vote_count": 9,
                "id": 450487,
                "video": false,
                "vote_average": 5.5,
                "title": "Fast Color",
                "popularity": 6.223,
                "poster_path": "\/1zZaZGMo23NsOGoGF5HRCPWwWN7.jpg",
                "original_language": "en",
                "original_title": "Fast Color",
                "genre_ids": [
                              53,
                              18,
                              878
                              ],
                "backdrop_path": "\/riqnB9uap4iQICx7vg5nluw0D9J.jpg",
                "adult": false,
                "overview": "A woman is forced to go on the run when her superhuman abilities are discovered. Years after having abandoned her family, the only place she has left to hide is home.",
                "release_date": "2019-03-29"
                }
                ]
}
